{
    "jet" : {
        "ints" : [
            "jetPtRank",
            "HadronConeExclTruthLabelID",
            "HadronConeExclExtendedTruthLabelID",
            "HadronConeExclTruthLabelPdgId",
            "HadronConeExclTruthLabelChildPdgId",
            "HadronGhostTruthLabelID",
            "HadronGhostExtendedTruthLabelID",
            "HadronGhostTruthLabelPdgId",
            "HadronGhostTruthLabelChildPdgId",
            "GhostBHadronsFinalCount",
            "GhostCHadronsFinalCount",
            "PartonTruthLabelID",
            "LeptonDecayLabel",
            "n_truth_promptLepton",
            "TauDecayLabel"
        ],
        "floats": [
            "NNJvt",
            "pt",
            "eta",
            "phi",
            "mass",
            "energy",
            "PartonTruthLabelPt",
            "PartonTruthLabelDR",
            "GhostBHadronsFinalPt",
            "HadronConeExclTruthLabelPt",
            "HadronConeExclTruthLabelLxy",
            "HadronConeExclTruthLabelDR",
            "HadronConeExclTruthLabelChildPt",
            "HadronConeExclTruthLabelChildLxy",
            "HadronGhostTruthLabelPt",
            "HadronGhostTruthLabelLxy",
            "HadronGhostTruthLabelDR",
            "HadronGhostTruthLabelChildPt",
            "HadronGhostTruthLabelChildLxy"
        ],
        "chars": [
            "isJvtPU",
            "isJvtHS"
        ]
    },
    "btagging" : {
        "ints" : [],
        "floats": [
            "pt_btagJes",
            "eta_btagJes",
            "absEta_btagJes",
            "scalarSumTrackPt",
            "softMuon_pt",
            "softMuon_dR",
            "softMuon_eta",
            "softMuon_phi",
            "softMuon_qOverPratio",
            "softMuon_momentumBalanceSignificance",
            "softMuon_scatteringNeighbourSignificance",
            "softMuon_pTrel",
            "softMuon_ip3dD0",
            "softMuon_ip3dZ0",
            "softMuon_ip3dD0Significance",
            "softMuon_ip3dZ0Significance",
            "softMuon_ip3dD0Uncertainty",
            "softMuon_ip3dZ0Uncertainty"
        ],
        "chars": []
    },
    "event": {
        "customs" : [
            "mcEventWeight",
            "eventNumber",
            "averageInteractionsPerCrossing",
            "actualInteractionsPerCrossing",
            "nPrimaryVertices"
    ]
    }
}
