{
    "jet_collection": "AntiKt4TruthJets",
    "calibration": {},
    "selection": {
        "minimum_jet_pt": 20000,
        "maximum_jet_absolute_eta": 2.5,
        "jet_cleaning": "event"
    },
    "vertex_collection": "PrimaryVertices",
    "truth_vertex_collection": "TruthPrimaryVertices",
    "dl2_configs": [],
    "variables": {
        "jet" : {
            "ints" : [
                "HadronConeExclTruthLabelID",
                "HadronConeExclExtendedTruthLabelID",
                "PartonTruthLabelID",
                "jetPtRank"
            ],
            "floats" : [
                "pt",
                "eta",
                "mass",
                "energy"
            ]
        },
        "event" : {
            "customs" : [
                "mcEventWeight",
                "eventNumber",
                "averageInteractionsPerCrossing",
                "actualInteractionsPerCrossing",
                "nPrimaryVertices"
            ]
        },
        "default_mapping": {
            "file": "fragments/default-mapping.json"
        }
    },
    "tracks": [],
    "truths": [
        {
            "association_name": "constituentLinks",
            "output": {
                "n_to_save": 20,
                "sort_order": "pt"
            },
            "vars" : {
                "ints" : [
                    "charge",
                    "flavour",
                    "pdgId",
                    "barcode"
                ],
                "floats" : [
                    "pt",
                    "mass",
                    "energy",
                    "eta",
                    "phi",
                    "deta",
                    "dphi",
                    "dr",
                    "Lxy"
                ]
            }
        }
    ],
    "flow": [{
        "type": "iparticle",
        "output_name": "jetConstituents",
        "accessor": "constituentLinks",
        "n_to_save": 20,
        "variables": {
            "customs": [
                "pt",
                "energy",
                "deta",
                "dphi",
                "dr"
            ]
        }
    }],
    "decorate": {},
    "btagging_link": ""
}
