{   "mc21":false ,
    "mc24":false,
    "data":true,
    "offline_jets": false,
    "do_track_matching": false,
    "emtopo_jets": false,
    "additional_chains": [],
    "associate_hits": false,

    "dumper": {
        "jet_collection": "tempJets",
        "calibration": {},
        "selection": {
            "minimum_jet_pt": 20000,
            "maximum_jet_absolute_eta": 2.5
        },
        "vertex_collection": "HLT_IDVertex_FS",
        "dl2_configs": [],
        "variables": {
            "btagging": {
                "halves": []
            },
            "jet" : {
                "floats": [
                    "pt",
                    "eta"
                ]
            },
            "event" : {
                "compressed": [
                    "eventNumber",
                    "averageInteractionsPerCrossing",
                    "actualInteractionsPerCrossing",
                    "nPrimaryVertices",
                    "primaryVertexBeamspotZ",
                    "primaryVertexDetectorZUncertainty"
                ]
            },
            "default_mapping": {
                "file": "fragments/default-mapping.json"
            }
        },
        "tracks": [
        ],
        "truths": [
        ],
        "btagging_link": ""
    }
}

