# Sample of MC21a production
#
# https://its.cern.ch/jira/browse/ATR-26299
#
# AODs ttbar ~50M Events
mc21_13p6TeV.601229.PhPy8EG_A14_ttbar_hdamp258p75_SingleLep.merge.AOD.e8453_e8455_s3873_s3874_r13983_r13831

# AODs Zprime ~10M Events
mc21_13p6TeV.801271.Py8EG_A14NNPDF23LO_flatpT_Zprime.recon.AOD.e8464_e8455_s3873_s3874_r13983

# AODs QCD dijets ~1M Events (each)
mc21_13p6TeV.801167.Py8EG_A14NNPDF23LO_jj_JZ2.merge.AOD.e8453_e8455_s3873_s3874_r13983_r13831
mc21_13p6TeV.801168.Py8EG_A14NNPDF23LO_jj_JZ3.merge.AOD.e8453_e8455_s3873_s3874_r13983_r13831
mc21_13p6TeV.801169.Py8EG_A14NNPDF23LO_jj_JZ4.merge.AOD.e8453_e8455_s3873_s3874_r13983_r13831
